28/06/2013:10:48:00:172.16.66.34:ls:realizado
28/06/2013:10:51:17:172.16.66.34:ls:realizado
28/06/2013:10:51:30:172.16.66.34:put PruebaCliente.rtf:realizado
30/06/2013:20:05:08:192.168.2.1:ls:realizado
30/06/2013:20:05:16:192.168.2.1:get Prueba1.rtf:realizado
30/06/2013:20:05:25:192.168.2.1:get 1ad:realizado
30/06/2013:20:05:38:192.168.2.1:put asdad:realizado
30/06/2013:20:07:57:192.168.2.1:put Prueba1.rtf:realizado
30/06/2013:20:08:29:192.168.2.1:put PruebaCliente.rtf:realizado
